cmd_b01_01_membership
cmd_b02_02_txn_dsct
cmd_b03_03_txn_ctgry
cmd_b05_04_txn_bskt
cmd_b06_04_txn_bskt_scan
cmd_b07_06_txn_extra
cmd_b08_07_et_camp
cmd_b09_08_extra_mem_obit
cmd_b10_08_extra_mem_obit_scan
cmd_b11_09_txn_subcat
cmd_b13_11_liquor_txn
cmd_b14_11_liquor_txn_scan
cmd_b17_13_txn_sup_ts
cmd_b18_13_txn_sup_ts_scan
cmd_b19_13_txn_time_series
cmd_b20_13_txn_time_series_scan
cmd_b22_17_health
cmd_b26_21_cust_dist
cmd_b27_22_unsubs
cmd_b28_23_et_camp_type
cmd_b29_24_houshold
cmd_b30_25_spend_stretch_camp
cmd_b31_26_txn_dept
cmd_b32_26_txn_dept_scan